{
	"type": "threecore:armor",
	
	"properties": {
		"group": "suits_and_armor"
	},
	
	"slot": "legs",
	
	"armor_material": "leather",

	"layers": {
		"type": "threecore:default",
		"model": "threecore:biped_0.25",
		"texture": "notenoughheroes:textures/models/armor/the_batman/layer_1.png"
	}
}